<?xml version="1.0" encoding="utf-8"?>
<!-- Generator: Adobe Illustrator 21.1.0, SVG Export Plug-In . SVG Version: 6.00 Build 0)  -->
<svg version="1.1" id="Capa_1" xmlns="http://www.w3.org/2000/svg" xmlns:xlink="http://www.w3.org/1999/xlink" x="0px" y="0px"
	 viewBox="0 0 259.2 512" style="enable-background:new 0 0 259.2 512;" xml:space="preserve">
<style type="text/css">
	.st0{fill:#2D2D2D;}
	.st1{fill:#F2FBFC;}
	.st2{fill:#BCBCBC;}
	.st3{fill:#D1D1D1;}
</style>
<title>car_black</title>
<g>
	<path class="st0" d="M64.5,491.9l30.3,13c22.2,9.5,47.3,9.5,69.5,0l30.3-12.9c34.9-14.8,56.3-50.4,53.2-88.2L235.5,256l12.7-151.7
		c3-35.9-16.2-69.9-48.5-85.9l-7-3.5c-39.8-19.8-86.5-19.8-126.3,0l-7,3.5c-32.2,16-51.5,50.1-48.5,85.9L23.7,256L11.3,403.8
		C8.2,441.6,29.6,477.1,64.5,491.9z"/>
	<path d="M11.9,396.2c49.7,65.5,133.9,94.6,213.4,73.8c-8.5,9.4-19,16.9-30.7,21.9l-30.3,13c-22.2,9.5-47.3,9.5-69.5,0L64.5,492
		c-34.9-14.8-56.3-50.4-53.2-88.2L11.9,396.2z"/>
	<path class="st1" d="M197.9,368.8l2.3-1.5c5.5-3.6,8.5-10,7.8-16.5l-7.8-77.3H59l-7.8,77.3c-0.7,6.5,2.3,12.8,7.8,16.5l2.2,1.5
		C102.6,396.3,156.5,396.3,197.9,368.8z"/>
	<path class="st2" d="M196.6,369.6c-41.3,26.7-94.4,26.3-135.4-0.8l-2.3-1.5c-5.5-3.6-8.5-10-7.8-16.5l5.9-59.1
		C91,335.7,141.4,363.8,196.6,369.6z"/>
	<path class="st1" d="M200.2,150H59l-6.8-40.7C51,102,54.5,94.6,61,91l17.1-9.5c32-17.8,70.9-17.8,102.9,0l17.1,9.5
		c6.5,3.6,10.1,11,8.8,18.3L200.2,150z"/>
	<path class="st2" d="M61,91l8.6-4.8c34.7,30.6,76.2,52.5,121,63.8H59l-6.8-40.7C50.9,102,54.5,94.6,61,91z"/>
	
		<rect x="159.5" y="423.7" transform="matrix(0.5547 -0.8321 0.8321 0.5547 -274.6514 351.8298)" class="st3" width="63.7" height="17.7"/>
	
		<rect x="58.9" y="400.7" transform="matrix(0.8321 -0.5547 0.5547 0.8321 -228.5305 110.2365)" class="st3" width="17.7" height="63.7"/>
</g>
</svg>
