<?xml version="1.0" encoding="utf-8"?>
<!-- Generator: Adobe Illustrator 21.1.0, SVG Export Plug-In . SVG Version: 6.00 Build 0)  -->
<svg version="1.1" id="Слой_1" xmlns="http://www.w3.org/2000/svg" xmlns:xlink="http://www.w3.org/1999/xlink" x="0px" y="0px"
	 viewBox="0 0 60 60" style="enable-background:new 0 0 60 60;" xml:space="preserve">
<style type="text/css">
	.st0{fill:#4264FB;}
	.st1{fill:#FFFFFF;}
</style>
<g id="surface1">
	<path class="st0" d="M45,15c0-8.3-6.7-15-15-15c-8.3,0-15,6.7-15,15c0,7.1,5,13.1,11.7,14.6V60h6.7V29.6C40,28.1,45,22.1,45,15z"/>
	<circle class="st1" cx="30" cy="15" r="5"/>
</g>
</svg>
